{
    "$schema": "http://json-schema.org/draft-04/schema#",
    "type": "object",
    "patternProperties": {
        "^([A-Za-z \\-_])+$": {
            "$ref": "#/definitions/category"
        }
    },
    "additionalProperties": false,
    "definitions":
    {
        "category": {
            "type":"object",
            "properties": {
                "type": {
                    "type":"string",
                    "enum":["category"]
                }
            },
            "patternProperties": {
                "^(?!type$)([A-Za-z \\-_])+$": {
                    "$ref":"#/definitions/subcontainer"
                }
            },
            "additionalProperties": false,
            "required": ["type"]
        },
        "subcontainer":{
            "type":"object",
            "properties": {
                "type": {
                    "type":"string",
                    "enum":["subcategory", "subsection"]
                }
            },
            "patternProperties": {
                "^(?!(type)$)([A-Za-z \\-_])+$": {
                    "oneOf": [
                        { "$ref":"#/definitions/setting" },
                        { "$ref":"#/definitions/integer_setting" },
                        { "$ref":"#/definitions/shortcut_setting" },
                        { "$ref":"#/definitions/help_setting" }
                    ]
                }
            },
            "additionalProperties": false,
            "required": ["type"]
        },
        "setting" :{
            "type":"object",
            "properties": {
                "type": {
                    "type": "string",
                    "enum": ["boolean", "string", "dictionary", "path"]
                },
                "help": {
                    "type":"string"
                },
                "human_name": {
                    "type":"string"
                },
                "default_value": {
                    "type":"string"
                },
                "summary": {
                    "type":"string"
                },
                "level": {
                    "type": "string",
                    "enum": ["0", "100", "250"]
                },
                "extra_params": {
                    "type":"object"
                },
                "widget": {
                    "type": "string"
                },
                "value_object" :{
                    "type": "string"
                },
                "signature" :{
                    "type": "string"
                }
            },
            "additionalProperties": false,
            "required": ["type", "help", "human_name", "default_value", "summary", "level"]
        },
        "integer_setting" :{
            "type":"object",
            "properties": {
                "type": {
                    "type": "string",
                    "enum": ["integer"]
                },
                "help": {
                    "type":"string"
                },
                "human_name": {
                    "type":"string"
                },
                "default_value": {
                    "type":"string"
                },
                "summary": {
                    "type":"string"
                },
                "extra_params": {
                    "type":"object",
                    "options": {
                        "type":"object"
                    }
                },
                "required":["options"],
                "widget": {
                    "type": "string"
                },
                "level": {
                    "type": "string",
                    "enum": ["0", "100", "250"]
                }
            },
            "additionalProperties": false,
            "required": ["type", "help", "human_name", "default_value", "summary", "extra_params", "level"]
        },
        "shortcut_setting" :{
            "type":"object",
            "properties": {
                "type": {
                    "type": "string",
                    "enum": ["shortcut"]
                },
                "default_value": {
                    "type":"string"
                },
                "summary": {
                    "type":"string"
                },
                "extra_params": {
                    "type":"object"
                },
                "widget": {
                    "type": "string"
                },
                "level": {
                    "type": "string",
                    "enum": ["0", "100", "250"]
                }
            },
            "additionalProperties": false,
            "required": ["type", "default_value", "summary", "level"]
        },
        "help_setting" :{
            "type":"object",
            "properties": {
                "type": {
                    "type": "string",
                    "enum": ["help"]
                },
                "help": {
                    "type":"string"
                },
                "widget": {
                    "type": "string"
                },
                "level": {
                    "type": "string",
                    "enum": ["0", "100", "250"]
                },
                "extra_params": {
                    "type":"object"
                }
            },
            "additionalProperties": false,
            "required": ["type", "help", "level"]
        }
    }
}
